m_CLOCK.vcd
$version Generated by VerilatedVcd $end
$date Tue Nov  9 12:39:34 2021
 $end
$timescale   1ps $end

 $scope module TOP $end
  $var wire  1 P CCLK $end
  $var wire  1 Q CHROMAL $end
  $var wire  1 R DQCLK $end
  $var wire  1 L FAST $end
  $var wire  1 N LP $end
  $var wire  1 H MCK $end
  $var wire  1 G MasterClock $end
  $var wire  1 K NTSC $end
  $var wire  1 O PCLKL $end
  $var wire  1 M TSTCLK $end
  $var wire  1 I VRD $end
  $var wire  1 J VWR $end
  $scope module m_CLOCK $end
   $var wire  1 6 A $end
   $var wire  1 ; AD $end
   $var wire  1 < ADL $end
   $var wire  1 5 AL $end
   $var wire  1 7 B $end
   $var wire  1 8 BL $end
   $var wire  1 9 C $end
   $var wire  1 # CA $end
   $var wire  1 ( CAD $end
   $var wire  1 ) CADL $end
   $var wire  1 & CAL $end
   $var wire  1 % CAT $end
   $var wire  1 $ CB $end
   $var wire  1 , CBD $end
   $var wire  1 - CBDL $end
   $var wire  1 ' CBL $end
   $var wire  1 P CCLK $end
   $var wire  1 * CCLK0 $end
   $var wire  1 + CCLK0L $end
   $var wire  1 + CCLK1L $end
   $var wire  1 * CCLKD $end
   $var wire  1 % CCLKT $end
   $var wire  1 * CCLKU $end
   $var wire  1 Q CHROMAL $end
   $var wire  1 T CKRSTL $end
   $var wire  1 : CL $end
   $var wire  1 / CLK6 $end
   $var wire  1 # CPTCA $end
   $var wire  1 4 D $end
   $var wire  1 . DCLKD $end
   $var wire  1 W DCLKL $end
   $var wire  1 R DQCLK $end
   $var wire  1 L FAST $end
   $var wire  1 N LP $end
   $var wire  1 V LPL $end
   $var wire  1 H MCK $end
   $var wire  1 S MCKL $end
   $var wire  1 G MasterClock $end
   $var wire  1 K NTSC $end
   $var wire  1 Y PAL $end
   $var wire  1 O PCLKL $end
   $var wire  1 X SLOW $end
   $var wire  1 # TCA $end
   $var wire  1 $ TCB $end
   $var wire  1 M TSTCLK $end
   $var wire  1 U TSTCLKL $end
   $var wire  1 I VRD $end
   $var wire  1 J VWR $end
   $var wire  1 0 X $end
   $var wire  1 1 XL $end
   $var wire  1 3 Y $end
   $var wire  1 2 YL $end
   $var wire  1 = Z $end
   $scope module AD__inst $end
    $var wire  1 G MasterClock $end
    $var wire  1 H clk $end
    $var wire  1 6 d $end
    $var wire  1 ; latchedData $end
    $var wire  1 ; q $end
    $var wire  1 < qL $end
    $var wire  1 T rL $end
    $var wire  2 F transition [1:0] $end
   $upscope $end
   $scope module CAD__inst $end
    $var wire  1 G MasterClock $end
    $var wire  1 S clk $end
    $var wire  1 # d $end
    $var wire  1 ( latchedData $end
    $var wire  1 ( q $end
    $var wire  1 ) qL $end
    $var wire  1 T rL $end
    $var wire  2 @ transition [1:0] $end
   $upscope $end
   $scope module CA__inst $end
    $var wire  1 G MasterClock $end
    $var wire  1 H clk $end
    $var wire  1 % d $end
    $var wire  1 # latchedData $end
    $var wire  1 # q $end
    $var wire  1 & qL $end
    $var wire  1 T rL $end
    $var wire  2 > transition [1:0] $end
   $upscope $end
   $scope module CBD__inst $end
    $var wire  1 G MasterClock $end
    $var wire  1 S clk $end
    $var wire  1 $ d $end
    $var wire  1 , latchedData $end
    $var wire  1 , q $end
    $var wire  1 - qL $end
    $var wire  1 T rL $end
    $var wire  2 A transition [1:0] $end
   $upscope $end
   $scope module CB__inst $end
    $var wire  1 G MasterClock $end
    $var wire  1 H clk $end
    $var wire  1 # d $end
    $var wire  1 $ latchedData $end
    $var wire  1 $ q $end
    $var wire  1 ' qL $end
    $var wire  1 T rL $end
    $var wire  2 ? transition [1:0] $end
   $upscope $end
   $scope module SHIFT1__inst $end
    $var wire  1 G MasterClock $end
    $var wire  1 S clk $end
    $var wire  1 4 d $end
    $var wire  1 5 latchedData $end
    $var wire  1 5 q $end
    $var wire  1 6 qL $end
    $var wire  1 T sL $end
   $upscope $end
   $scope module SHIFT2__inst $end
    $var wire  1 G MasterClock $end
    $var wire  1 S clk $end
    $var wire  1 6 d $end
    $var wire  1 7 latchedData $end
    $var wire  1 7 q $end
    $var wire  1 8 qL $end
    $var wire  1 T rL $end
    $var wire  2 D transition [1:0] $end
   $upscope $end
   $scope module SHIFT3__inst $end
    $var wire  1 G MasterClock $end
    $var wire  1 S clk $end
    $var wire  1 7 d $end
    $var wire  1 9 latchedData $end
    $var wire  1 9 q $end
    $var wire  1 : qL $end
    $var wire  1 T rL $end
    $var wire  2 E transition [1:0] $end
   $upscope $end
   $scope module X__inst $end
    $var wire  1 G MasterClock $end
    $var wire  1 S clk $end
    $var wire  1 1 d $end
    $var wire  1 0 latchedData $end
    $var wire  1 0 q $end
    $var wire  1 1 qL $end
    $var wire  1 T rL $end
    $var wire  2 B transition [1:0] $end
   $upscope $end
   $scope module Y__inst $end
    $var wire  1 G MasterClock $end
    $var wire  1 1 clk $end
    $var wire  1 2 d $end
    $var wire  1 3 latchedData $end
    $var wire  1 3 q $end
    $var wire  1 2 qL $end
    $var wire  1 T rL $end
    $var wire  2 C transition [1:0] $end
   $upscope $end
  $upscope $end
 $upscope $end
$enddefinitions $end


#8
0#
0$
1%
1&
1'
0(
1)
1*
0+
0,
1-
1.
1/
00
11
12
03
04
05
16
07
18
09
1:
0;
1<
1=
b00 >
b00 ?
b00 @
b00 A
b00 B
b00 C
b00 D
b00 E
b00 F
1G
0H
1I
1J
0K
0L
0M
0N
0O
0P
0Q
0R
1S
0T
1U
1V
0W
1X
1Y
#10
15
06
1Q
1R
#15
0G
#18
#20
b01 @
b01 A
b01 B
b01 C
b01 D
b01 E
1G
#25
0G
#28
#30
b11 @
b11 A
b11 B
b11 C
b11 D
b11 E
1G
#35
0G
#38
#40
1G
#45
0G
#48
#50
1G
#55
0G
#58
#60
1G
#65
0G
#68
#70
1G
#75
0G
#78
#80
b01 >
b01 ?
b10 @
b10 A
b10 B
b10 D
b10 E
b01 F
1G
1H
0S
#85
0G
#88
#90
b11 >
b11 ?
b00 @
b00 A
b00 B
b00 D
b00 E
b11 F
1G
#95
0G
#98
#100
1G
#105
0G
#108
#110
1G
#115
0G
#118
#120
1G
#125
0G
#128
#130
1G
#135
0G
#138
#140
1G
#145
0G
#148
#150
1G
#155
0G
#158
#160
b10 >
b10 ?
b01 @
b01 A
b01 B
b01 D
b01 E
b10 F
1G
0H
1S
#165
0G
#168
#170
b00 >
b00 ?
b11 @
b11 A
b11 B
b11 D
b11 E
b00 F
1G
#175
0G
#178
#180
1G
#185
0G
#188
#190
1G
#195
0G
#198
#200
1G
#205
0G
#208
#210
1G
0I
0J
1T
#215
0G
#218
#220
05
16
1G
#225
0G
#228
#230
1G
#235
0G
#238
#240
b01 >
b01 ?
b10 @
b10 A
b10 B
b10 D
b10 E
b01 F
1G
1H
0S
#245
0G
#248
#250
1#
0&
1;
0<
0=
b11 >
b11 ?
b00 @
b00 A
b00 B
b00 D
b00 E
b11 F
1G
#255
0G
#258
#260
1G
#265
0G
#268
#270
1G
#275
0G
#278
#280
1G
#285
0G
#288
#290
1G
#295
0G
#298
#300
1G
#305
0G
#308
#310
1G
#315
0G
#318
#320
b10 >
b10 ?
b01 @
b01 A
b01 B
b01 D
b01 E
b10 F
1G
0H
1S
#325
0G
#328
#330
1(
0)
0*
1+
0/
10
01
17
08
b00 >
b00 ?
b11 @
b11 A
b11 B
b11 D
b11 E
b00 F
1G
1O
1P
#335
0G
#338
#340
b10 C
1G
#345
0G
#348
#350
b00 C
1G
#355
0G
#358
#360
1G
#365
0G
#368
#370
1G
#375
0G
#378
#380
1G
#385
0G
#388
#390
1G
#395
0G
#398
#400
b01 >
b01 ?
b10 @
b10 A
b10 B
b10 D
b10 E
b01 F
1G
1H
0S
#405
0G
#408
#410
1$
0%
0'
1*
0+
b11 >
b11 ?
b00 @
b00 A
b00 B
b00 D
b00 E
b11 F
1G
0P
#415
0G
#418
#420
1G
#425
0G
#428
#430
1G
#435
0G
#438
#440
1G
#445
0G
#448
#450
1G
#455
0G
#458
#460
1G
#465
0G
#468
#470
1G
#475
0G
#478
#480
b10 >
b10 ?
b01 @
b01 A
b01 B
b01 D
b01 E
b10 F
1G
0H
1S
#485
0G
#488
#490
1,
0-
0.
00
11
14
19
0:
b00 >
b00 ?
b11 @
b11 A
b11 B
b11 D
b11 E
b00 F
1G
0R
1W
#495
0G
#498
#500
15
06
1=
b01 C
1G
#505
0G
#508
#510
02
13
b11 C
1G
0Q
#515
0G
#518
#520
1G
#525
0G
#528
#530
1G
#535
0G
#538
#540
1G
#545
0G
#548
#550
1G
#555
0G
#558
#560
b01 >
b01 ?
b10 @
b10 A
b10 B
b10 D
b10 E
b01 F
1G
1H
0S
#565
0G
#568
#570
0#
1%
1&
0*
1+
1.
1/
0;
1<
b11 >
b11 ?
b00 @
b00 A
b00 B
b00 D
b00 E
b11 F
1G
0O
1P
1R
0W
#575
0G
#578
#580
1G
#585
0G
#588
#590
1G
#595
0G
#598
#600
1G
#605
0G
#608
#610
1G
#615
0G
#618
#620
1G
#625
0G
#628
#630
1G
#635
0G
#638
#640
b10 >
b10 ?
b01 @
b01 A
b01 B
b01 D
b01 E
b10 F
1G
0H
1S
#645
0G
#648
#650
0(
1)
1*
0+
10
01
04
07
18
b00 >
b00 ?
b11 @
b11 A
b11 B
b11 D
b11 E
b00 F
1G
0P
#655
0G
#658
#660
14
05
16
b10 C
1G
#665
0G
#668
#670
04
15
06
b00 C
1G
#675
0G
#678
#680
14
05
16
1G
#685
0G
#688
#690
04
15
06
1G
#695
0G
#698
#700
14
05
16
1G
#705
0G
#708
#710
04
15
06
1G
#715
0G
#718
#720
b01 >
b01 ?
b10 @
b10 A
b10 B
b10 D
b10 E
b01 F
1G
1H
0S
#725
0G
#728
#730
1#
0$
0&
1'
0.
b11 >
b11 ?
b00 @
b00 A
b00 B
b00 D
b00 E
b11 F
1G
0R
1W
#735
0G
#738
#740
1G
#745
0G
#748
#750
1G
#755
0G
#758
#760
1G
#765
0G
#768
#770
1G
#775
0G
#778
#780
1G
#785
0G
#788
#790
1G
#795
0G
#798
#800
14
05
16
b10 >
b10 ?
b01 @
b01 A
b01 B
b01 D
b01 E
b10 F
1G
0H
1S
#805
0G
#808
#810
1(
0)
0*
1+
0,
1-
1.
0/
00
11
15
06
17
08
09
1:
b00 >
b00 ?
b11 @
b11 A
b11 B
b11 D
b11 E
b00 F
1G
1O
1P
1R
0W
#815
0G
#818
#820
b01 C
1G
#825
0G
#828
#830
12
03
b11 C
1G
1Q
#835
0G
#838
#840
1G
#845
0G
#848
#850
1G
#855
0G
#858
#860
1G
#865
0G
#868
#870
1G
#875
0G
#878
#880
b01 >
b01 ?
b10 @
b10 A
b10 B
b10 D
b10 E
b01 F
1G
1H
0S
#885
0G
#888
#890
1$
0%
0'
1*
0+
b11 >
b11 ?
b00 @
b00 A
b00 B
b00 D
b00 E
b11 F
1G
0P
#895
0G
#898
#900
1G
#905
0G
#908
#910
1G
#915
0G
#918
#920
1G
#925
0G
#928
#930
1G
#935
0G
#938
#940
1G
#945
0G
#948
#950
1G
#955
0G
#958
#960
b10 >
b10 ?
b01 @
b01 A
b01 B
b01 D
b01 E
b10 F
1G
0H
1S
#965
0G
#968
#970
1,
0-
0.
10
01
04
07
18
19
0:
b00 >
b00 ?
b11 @
b11 A
b11 B
b11 D
b11 E
b00 F
1G
0R
1W
#975
0G
#978
#980
14
05
16
b10 C
1G
#985
0G
#988
#990
04
15
06
b00 C
1G
#995
0G
#998
#1000
14
05
16
1G
#1005
0G
#1008
#1010
04
15
06
1G
#1015
0G
#1018
#1020
14
05
16
1G
#1025
0G
#1028
#1030
04
15
06
1G
#1035
0G
#1038
#1040
b01 >
b01 ?
b10 @
b10 A
b10 B
b10 D
b10 E
b01 F
1G
1H
0S
#1045
0G
#1048
#1050
0#
1%
1&
0*
1+
1.
1/
b11 >
b11 ?
b00 @
b00 A
b00 B
b00 D
b00 E
b11 F
1G
0O
1P
1R
0W
#1055
0G
#1058
#1060
1G
#1065
0G
#1068
#1070
1G
#1075
0G
#1078
#1080
1G
#1085
0G
#1088
#1090
1G
#1095
0G
#1098
#1100
1G
#1105
0G
#1108
#1110
1G
#1115
0G
#1118
#1120
14
05
16
b10 >
b10 ?
b01 @
b01 A
b01 B
b01 D
b01 E
b10 F
1G
0H
1S
#1125
0G
#1128
#1130
0(
1)
1*
0+
00
11
15
06
17
08
09
1:
b00 >
b00 ?
b11 @
b11 A
b11 B
b11 D
b11 E
b00 F
1G
0P
#1135
0G
#1138
#1140
b01 C
1G
#1145
0G
#1148
#1150
02
13
b11 C
1G
0Q
#1155
0G
#1158
#1160
1G
#1165
0G
#1168
#1170
1G
#1175
0G
#1178
#1180
1G
#1185
0G
#1188
#1190
1G
#1195
0G
#1198
#1200
b01 >
b01 ?
b10 @
b10 A
b10 B
b10 D
b10 E
b01 F
1G
1H
0S
#1205
0G
#1208
#1210
1#
0$
0&
1'
0.
b11 >
b11 ?
b00 @
b00 A
b00 B
b00 D
b00 E
b11 F
1G
0R
1W
#1215
0G
#1218
#1220
1G
#1225
0G
#1228
#1230
1G
#1235
0G
#1238
#1240
1G
#1245
0G
#1248
#1250
1G
#1255
0G
#1258
#1260
1G
#1265
0G
#1268
#1270
1G
#1275
0G
#1278
#1280
b10 >
b10 ?
b01 @
b01 A
b01 B
b01 D
b01 E
b10 F
1G
0H
1S
#1285
0G
#1288
#1290
1(
0)
0*
1+
0,
1-
1.
0/
10
01
04
07
18
19
0:
b00 >
b00 ?
b11 @
b11 A
b11 B
b11 D
b11 E
b00 F
1G
1O
1P
1R
0W
#1295
0G
#1298
#1300
14
05
16
b10 C
1G
#1305
0G
#1308
#1310
04
15
06
b00 C
1G
#1315
0G
#1318
#1320
14
05
16
1G
#1325
0G
#1328
#1330
04
15
06
1G
#1335
0G
#1338
#1340
14
05
16
1G
#1345
0G
#1348
#1350
04
15
06
1G
#1355
0G
#1358
#1360
b01 >
b01 ?
b10 @
b10 A
b10 B
b10 D
b10 E
b01 F
1G
1H
0S
#1365
0G
#1368
#1370
1$
0%
0'
1*
0+
b11 >
b11 ?
b00 @
b00 A
b00 B
b00 D
b00 E
b11 F
1G
0P
#1375
0G
#1378
#1380
1G
#1385
0G
#1388
#1390
1G
#1395
0G
#1398
#1400
1G
#1405
0G
#1408
#1410
1G
#1415
0G
#1418
#1420
1G
#1425
0G
#1428
#1430
1G
#1435
0G
#1438
#1440
14
05
16
b10 >
b10 ?
b01 @
b01 A
b01 B
b01 D
b01 E
b10 F
1G
0H
1S
#1445
0G
#1448
#1450
1,
0-
0.
00
11
15
06
17
08
09
1:
b00 >
b00 ?
b11 @
b11 A
b11 B
b11 D
b11 E
b00 F
1G
0R
1W
#1455
0G
#1458
#1460
b01 C
1G
#1465
0G
#1468
#1470
12
03
b11 C
1G
1Q
#1475
0G
#1478
#1480
1G
#1485
0G
#1488
#1490
1G
#1495
0G
#1498
#1500
1G
#1505
0G
#1508
#1510
1G
#1515
0G
#1518
#1520
b01 >
b01 ?
b10 @
b10 A
b10 B
b10 D
b10 E
b01 F
1G
1H
0S
#1525
0G
#1528
#1530
0#
1%
1&
0*
1+
1.
1/
b11 >
b11 ?
b00 @
b00 A
b00 B
b00 D
b00 E
b11 F
1G
0O
1P
1R
0W
#1535
0G
#1538
#1540
1G
#1545
0G
#1548
#1550
1G
#1555
0G
#1558
#1560
1G
#1565
0G
#1568
#1570
1G
#1575
0G
#1578
#1580
1G
#1585
0G
#1588
#1590
1G
#1595
0G
#1598
#1600
b10 >
b10 ?
b01 @
b01 A
b01 B
b01 D
b01 E
b10 F
1G
0H
1S
#1605
0G
#1608
#1610
0(
1)
1*
0+
10
01
04
07
18
19
0:
b00 >
b00 ?
b11 @
b11 A
b11 B
b11 D
b11 E
b00 F
1G
0P
#1615
0G
#1618
#1620
14
05
16
b10 C
1G
#1625
0G
#1628
#1630
04
15
06
b00 C
1G
#1635
0G
#1638
#1640
14
05
16
1G
#1645
0G
#1648
#1650
04
15
06
1G
#1655
0G
#1658
#1660
14
05
16
1G
#1665
0G
#1668
#1670
04
15
06
1G
#1675
0G
#1678
#1680
b01 >
b01 ?
b10 @
b10 A
b10 B
b10 D
b10 E
b01 F
1G
1H
0S
#1685
0G
#1688
#1690
1#
0$
0&
1'
0.
b11 >
b11 ?
b00 @
b00 A
b00 B
b00 D
b00 E
b11 F
1G
0R
1W
#1695
0G
#1698
#1700
1G
#1705
0G
#1708
#1710
1G
#1715
0G
#1718
#1720
1G
#1725
0G
#1728
#1730
1G
#1735
0G
#1738
#1740
1G
#1745
0G
#1748
#1750
1G
#1755
0G
#1758
#1760
14
05
16
b10 >
b10 ?
b01 @
b01 A
b01 B
b01 D
b01 E
b10 F
1G
0H
1S
#1765
0G
#1768
#1770
1(
0)
0*
1+
0,
1-
1.
0/
00
11
15
06
17
08
09
1:
b00 >
b00 ?
b11 @
b11 A
b11 B
b11 D
b11 E
b00 F
1G
1O
1P
1R
0W
#1775
0G
#1778
#1780
b01 C
1G
#1785
0G
#1788
#1790
02
13
b11 C
1G
0Q
#1795
0G
#1798
#1800
1G
#1805
0G
#1808
#1810
1G
#1815
0G
#1818
#1820
1G
#1825
0G
#1828
#1830
1G
#1835
0G
#1838
#1840
b01 >
b01 ?
b10 @
b10 A
b10 B
b10 D
b10 E
b01 F
1G
1H
0S
#1845
0G
#1848
#1850
1$
0%
0'
1*
0+
b11 >
b11 ?
b00 @
b00 A
b00 B
b00 D
b00 E
b11 F
1G
0P
#1855
0G
#1858
#1860
1G
#1865
0G
#1868
#1870
1G
#1875
0G
#1878
#1880
1G
#1885
0G
#1888
#1890
1G
#1895
0G
#1898
#1900
1G
#1905
0G
#1908
#1910
1G
#1915
0G
#1918
#1920
b10 >
b10 ?
b01 @
b01 A
b01 B
b01 D
b01 E
b10 F
1G
0H
1S
#1925
0G
#1928
#1930
1,
0-
0.
10
01
04
07
18
19
0:
b00 >
b00 ?
b11 @
b11 A
b11 B
b11 D
b11 E
b00 F
1G
0R
1W
#1935
0G
#1938
#1940
14
05
16
b10 C
1G
#1945
0G
#1948
#1950
04
15
06
b00 C
1G
#1955
0G
#1958
#1960
14
05
16
1G
#1965
0G
#1968
#1970
04
15
06
1G
#1975
0G
#1978
#1980
14
05
16
1G
#1985
0G
#1988
#1990
04
15
06
1G
#1995
0G
#1998
#2000
b01 >
b01 ?
b10 @
b10 A
b10 B
b10 D
b10 E
b01 F
1G
1H
0S
#2005
0G
#2008
#2010
0#
1%
1&
0*
1+
1.
1/
b11 >
b11 ?
b00 @
b00 A
b00 B
b00 D
b00 E
b11 F
1G
0O
1P
1R
0W
#2015
0G
#2018
#2020
1G
#2025
0G
#2028
#2030
1G
#2035
0G
#2038
#2040
1G
#2045
0G
#2048
#2050
1G
#2055
0G
#2058
#2060
1G
#2065
0G
#2068
#2070
1G
#2075
0G
#2078
#2080
14
05
16
b10 >
b10 ?
b01 @
b01 A
b01 B
b01 D
b01 E
b10 F
1G
0H
1S
#2085
0G
#2088
#2090
0(
1)
1*
0+
00
11
15
06
17
08
09
1:
b00 >
b00 ?
b11 @
b11 A
b11 B
b11 D
b11 E
b00 F
1G
0P
#2095
0G
#2098
#2100
b01 C
1G
#2105
0G
#2108
#2110
12
03
b11 C
1G
1Q
#2115
0G
#2118
#2120
1G
#2125
0G
#2128
#2130
1G
#2135
0G
#2138
#2140
1G
#2145
0G
#2148
#2150
1G
#2155
0G
#2158
#2160
b01 >
b01 ?
b10 @
b10 A
b10 B
b10 D
b10 E
b01 F
1G
1H
0S
#2165
0G
#2168
#2170
1#
0$
0&
1'
0.
b11 >
b11 ?
b00 @
b00 A
b00 B
b00 D
b00 E
b11 F
1G
0R
1W
#2175
0G
#2178
#2180
1G
#2185
0G
#2188
#2190
1G
#2195
0G
#2198
#2200
1G
#2205
0G
#2208
#2210
1G
#2215
0G
#2218
#2220
1G
#2225
0G
#2228
#2230
1G
#2235
0G
#2238
#2240
b10 >
b10 ?
b01 @
b01 A
b01 B
b01 D
b01 E
b10 F
1G
0H
1S
#2245
0G
#2248
#2250
1(
0)
0*
1+
0,
1-
1.
0/
10
01
04
07
18
19
0:
b00 >
b00 ?
b11 @
b11 A
b11 B
b11 D
b11 E
b00 F
1G
1O
1P
1R
0W
#2255
0G
#2258
#2260
14
05
16
b10 C
1G
#2265
0G
#2268
#2270
04
15
06
b00 C
1G
#2275
0G
#2278
#2280
14
05
16
1G
#2285
0G
#2288
#2290
04
15
06
1G
#2295
0G
#2298
#2300
14
05
16
1G
#2305
0G
#2308
#2310
04
15
06
1G
#2315
0G
#2318
#2320
b01 >
b01 ?
b10 @
b10 A
b10 B
b10 D
b10 E
b01 F
1G
1H
0S
#2325
0G
#2328
#2330
1$
0%
0'
1*
0+
b11 >
b11 ?
b00 @
b00 A
b00 B
b00 D
b00 E
b11 F
1G
0P
#2335
0G
#2338
#2340
1G
#2345
0G
#2348
#2350
1G
#2355
0G
#2358
#2360
1G
#2365
0G
#2368
#2370
1G
#2375
0G
#2378
#2380
1G
#2385
0G
#2388
#2390
1G
#2395
0G
#2398
#2400
14
05
16
b10 >
b10 ?
b01 @
b01 A
b01 B
b01 D
b01 E
b10 F
1G
0H
1S
#2405
0G
#2408
#2410
1,
0-
0.
00
11
15
06
17
08
09
1:
b00 >
b00 ?
b11 @
b11 A
b11 B
b11 D
b11 E
b00 F
1G
0R
1W
#2415
0G
#2418
#2420
b01 C
1G
#2425
0G
#2428
#2430
02
13
b11 C
1G
0Q
#2435
0G
#2438
#2440
1G
#2445
0G
#2448
#2450
1G
#2455
0G
#2458
#2460
1G
#2465
0G
#2468
#2470
1G
#2475
0G
#2478
#2480
b01 >
b01 ?
b10 @
b10 A
b10 B
b10 D
b10 E
b01 F
1G
1H
0S
#2485
0G
#2488
#2490
0#
1%
1&
0*
1+
1.
1/
b11 >
b11 ?
b00 @
b00 A
b00 B
b00 D
b00 E
b11 F
1G
0O
1P
1R
0W
#2495
0G
#2498
#2500
1G
#2505
0G
#2508
#2510
1G
#2515
0G
#2518
#2520
1G
#2525
0G
#2528
#2530
1G
#2535
0G
#2538
#2540
1G
#2545
0G
#2548
#2550
1G
#2555
0G
#2558
#2560
b10 >
b10 ?
b01 @
b01 A
b01 B
b01 D
b01 E
b10 F
1G
0H
1S
#2565
0G
#2568
#2570
0(
1)
1*
0+
10
01
04
07
18
19
0:
b00 >
b00 ?
b11 @
b11 A
b11 B
b11 D
b11 E
b00 F
1G
0P
#2575
0G
#2578
#2580
14
05
16
b10 C
1G
#2585
0G
#2588
#2590
04
15
06
b00 C
1G
#2595
0G
#2598
#2600
14
05
16
1G
#2605
0G
#2608
#2610
04
15
06
1G
#2615
0G
#2618
#2620
14
05
16
1G
#2625
0G
#2628
#2630
04
15
06
1G
#2635
0G
#2638
#2640
b01 >
b01 ?
b10 @
b10 A
b10 B
b10 D
b10 E
b01 F
1G
1H
0S
#2645
0G
#2648
#2650
1#
0$
0&
1'
0.
b11 >
b11 ?
b00 @
b00 A
b00 B
b00 D
b00 E
b11 F
1G
0R
1W
#2655
0G
#2658
#2660
1G
#2665
0G
#2668
#2670
1G
#2675
0G
#2678
#2680
1G
#2685
0G
#2688
#2690
1G
#2695
0G
#2698
#2700
1G
#2705
0G
#2708
#2710
1G
#2715
0G
#2718
#2720
14
05
16
b10 >
b10 ?
b01 @
b01 A
b01 B
b01 D
b01 E
b10 F
1G
0H
1S
#2725
0G
#2728
#2730
1(
0)
0*
1+
0,
1-
1.
0/
00
11
15
06
17
08
09
1:
b00 >
b00 ?
b11 @
b11 A
b11 B
b11 D
b11 E
b00 F
1G
1O
1P
1R
0W
#2735
0G
#2738
#2740
b01 C
1G
#2745
0G
#2748
#2750
12
03
b11 C
1G
1Q
#2755
0G
#2758
#2760
1G
#2765
0G
#2768
#2770
1G
#2775
0G
#2778
#2780
1G
#2785
0G
#2788
#2790
1G
#2795
0G
#2798
#2800
b01 >
b01 ?
b10 @
b10 A
b10 B
b10 D
b10 E
b01 F
1G
1H
0S
#2805
0G
#2808
#2810
1$
0%
0'
1*
0+
b11 >
b11 ?
b00 @
b00 A
b00 B
b00 D
b00 E
b11 F
1G
0P
#2815
0G
#2818
#2820
1G
#2825
0G
#2828
#2830
1G
#2835
0G
#2838
#2840
1G
#2845
0G
#2848
#2850
1G
#2855
0G
#2858
#2860
1G
#2865
0G
#2868
#2870
1G
#2875
0G
#2878
#2880
b10 >
b10 ?
b01 @
b01 A
b01 B
b01 D
b01 E
b10 F
1G
0H
1S
#2885
0G
#2888
#2890
1,
0-
0.
10
01
04
07
18
19
0:
b00 >
b00 ?
b11 @
b11 A
b11 B
b11 D
b11 E
b00 F
1G
0R
1W
#2895
0G
#2898
#2900
14
05
16
b10 C
1G
#2905
0G
#2908
#2910
04
15
06
b00 C
1G
#2915
0G
#2918
#2920
14
05
16
1G
#2925
0G
#2928
#2930
04
15
06
1G
#2935
0G
#2938
#2940
14
05
16
1G
#2945
0G
#2948
#2950
04
15
06
1G
#2955
0G
#2958
#2960
b01 >
b01 ?
b10 @
b10 A
b10 B
b10 D
b10 E
b01 F
1G
1H
0S
#2965
0G
#2968
#2970
0#
1%
1&
0*
1+
1.
1/
b11 >
b11 ?
b00 @
b00 A
b00 B
b00 D
b00 E
b11 F
1G
0O
1P
1R
0W
#2975
0G
#2978
#2980
1G
#2985
0G
#2988
#2990
1G
#2995
0G
#2998
#3000
1G
#3005
0G
#3008
#3010
1G
#3015
0G
#3018
#3020
1G
#3025
0G
#3028
#3030
1G
#3035
0G
#3038
#3040
14
05
16
b10 >
b10 ?
b01 @
b01 A
b01 B
b01 D
b01 E
b10 F
1G
0H
1S
#3045
0G
#3048
#3050
0(
1)
1*
0+
00
11
15
06
17
08
09
1:
b00 >
b00 ?
b11 @
b11 A
b11 B
b11 D
b11 E
b00 F
1G
0P
#3055
0G
#3058
#3060
b01 C
1G
#3065
0G
#3068
#3070
02
13
b11 C
1G
0Q
#3075
0G
#3078
#3080
1G
#3085
0G
#3088
#3090
1G
#3095
0G
#3098
#3100
1G
#3105
0G
#3108
#3110
1G
#3115
0G
#3118
#3120
b01 >
b01 ?
b10 @
b10 A
b10 B
b10 D
b10 E
b01 F
1G
1H
0S
#3125
0G
#3128
#3130
1#
0$
0&
1'
0.
b11 >
b11 ?
b00 @
b00 A
b00 B
b00 D
b00 E
b11 F
1G
0R
1W
#3135
0G
#3138
#3140
1G
#3145
0G
#3148
#3150
1G
#3155
0G
#3158
#3160
1G
#3165
0G
#3168
#3170
1G
#3175
0G
#3178
#3180
1G
#3185
0G
#3188
#3190
1G
#3195
0G
#3198
#3200
b10 >
b10 ?
b01 @
b01 A
b01 B
b01 D
b01 E
b10 F
1G
0H
1S
#3205
0G
#3208
#3210
1(
0)
0*
1+
0,
1-
1.
0/
10
01
04
07
18
19
0:
b00 >
b00 ?
b11 @
b11 A
b11 B
b11 D
b11 E
b00 F
1G
1O
1P
1R
0W
#3215
0G
#3218
#3220
14
05
16
b10 C
1G
#3225
0G
#3228
#3230
04
15
06
b00 C
1G
#3235
0G
#3238
#3240
14
05
16
1G
#3245
0G
#3248
#3250
04
15
06
1G
#3255
0G
#3258
#3260
14
05
16
1G
#3265
0G
#3268
#3270
04
15
06
1G
#3275
0G
#3278
#3280
b01 >
b01 ?
b10 @
b10 A
b10 B
b10 D
b10 E
b01 F
1G
1H
0S
#3285
0G
#3288
#3290
1$
0%
0'
1*
0+
b11 >
b11 ?
b00 @
b00 A
b00 B
b00 D
b00 E
b11 F
1G
0P
#3295
0G
#3298
#3300
1G
#3305
0G
#3308
#3310
1G
#3315
0G
#3318
#3320
1G
#3325
0G
#3328
#3330
1G
#3335
0G
#3338
#3340
1G
#3345
0G
#3348
#3350
1G
#3355
0G
#3358
#3360
14
05
16
b10 >
b10 ?
b01 @
b01 A
b01 B
b01 D
b01 E
b10 F
1G
0H
1S
#3365
0G
#3368
#3370
1,
0-
0.
00
11
15
06
17
08
09
1:
b00 >
b00 ?
b11 @
b11 A
b11 B
b11 D
b11 E
b00 F
1G
0R
1W
#3375
0G
#3378
#3380
b01 C
1G
#3385
0G
#3388
#3390
12
03
b11 C
1G
1Q
#3395
0G
#3398
#3400
1G
#3405
0G
#3408
#3410
1G
#3415
0G
#3418
#3420
1G
#3425
0G
#3428
#3430
1G
#3435
0G
#3438
#3440
b01 >
b01 ?
b10 @
b10 A
b10 B
b10 D
b10 E
b01 F
1G
1H
0S
#3445
0G
#3448
#3450
0#
1%
1&
0*
1+
1.
1/
b11 >
b11 ?
b00 @
b00 A
b00 B
b00 D
b00 E
b11 F
1G
0O
1P
1R
0W
#3455
0G
#3458
#3460
1G
#3465
0G
#3468
#3470
1G
#3475
0G
#3478
#3480
1G
#3485
0G
#3488
#3490
1G
#3495
0G
#3498
#3500
1G
#3505
0G
#3508
#3510
1G
#3515
0G
#3518
#3520
b10 >
b10 ?
b01 @
b01 A
b01 B
b01 D
b01 E
b10 F
1G
0H
1S
#3525
0G
#3528
#3530
0(
1)
1*
0+
10
01
04
07
18
19
0:
b00 >
b00 ?
b11 @
b11 A
b11 B
b11 D
b11 E
b00 F
1G
0P
#3535
0G
#3538
#3540
14
05
16
b10 C
1G
#3545
0G
#3548
#3550
04
15
06
b00 C
1G
#3555
0G
#3558
#3560
14
05
16
1G
#3565
0G
#3568
#3570
04
15
06
1G
#3575
0G
#3578
#3580
14
05
16
1G
#3585
0G
#3588
#3590
04
15
06
1G
#3595
0G
#3598
#3600
b01 >
b01 ?
b10 @
b10 A
b10 B
b10 D
b10 E
b01 F
1G
1H
0S
#3605
0G
#3608
#3610
1#
0$
0&
1'
0.
b11 >
b11 ?
b00 @
b00 A
b00 B
b00 D
b00 E
b11 F
1G
0R
1W
